{
    "ItemGiverChained": [
    ],
    "TransportData": [
    ],
    "FactionData": [
    ],
    "BankData": [
    ],
    "ItemGiversList": [
    ],
    "MailData": [
    ],
    "PlayerName": "Fighter1000",
    "QuestData": {
        "CompletedQuests": [
        ],
        "ActiveQuests": [
        ]
    },
    "UUID": "62e3d6c7-25e2-4b54-80f7-7531fccfd8f2",
    "PlayerCompanionId": 0,
    "DialogData": [
    ]
}
